6 Thống kê mô tả cơ bản | Giới thiệu cơ bản về XSTK
…
Chiều cao của mỗi cột trong đồ thị histogram thể hiện tần suất kết quả chạy theo các khoảng (interval), và trong R gọi là các bin (ngăn). Mặc định của hàm geom_histogram là bins=30, tức là mỗi khoảng cách nhau 30 đơn vị.

Ta có thể diễn giải lại biểu đồ trên dưới dạng bảng:

TenMileRace %>%
    mutate(bins=cut(net, breaks=30)) %>%
    group_by(bins) %>%
    summarise(count=n())

## `summarise()` ungrouping output (override with `.groups` argument)

## # A tibble: 29 x 2
##    bins                count
##    <fct>               <int>
##  1 (2.81e+03,3.07e+03]    18
##  2 (3.07e+03,3.33e+03]    22
##  3 (3.33e+03,3.59e+03]    65
##  4 (3.59e+03,3.84e+03]   131
##  5 (3.84e+03,4.1e+03]    197
##  6 (4.1e+03,4.36e+03]    339
##  7 (4.36e+03,4.62e+03]   495
##  8 (4.62e+03,4.87e+03]   685
##  9 (4.87e+03,5.13e+03]   735
## 10 (5.13e+03,5.39e+03]  1004
## # … with 19 more rows
…
